NOTE: config file "config.txt" => loading
WARNING: config file "config.txt": aliasesFile option => not set
NOTE: output directory "Topotecan" => creating
NOTE: Aliases output file "Topotecan/Aliases.tsv" => saving
NOTE: merged copy and expression data => computing
NOTE: de-aliased copies => computing
NOTE: aliases for copies => computing
MFAPreselection: no config value defined for "aliasesFile"
CallStack (from HasCallStack):
  error, called at src/Rogan/Config.hs:217:39 in main:Rogan.Config
