  ;eigenvalue;percentage of variance;cumulative percentage of variance;
comp 1;1.37583345403142;45.8611151343806;45.8611151343806
comp 2;0.915574977126777;30.5191659042259;76.3802810386066
comp 3;0.708591568841803;23.6197189613934;100

Lg
   ;GI50;CopyNumber;GeneExpression;MFA;
GI50;1;0.0306;0.077;0.805;
CopyNumber;0.0306;1;0.0091;0.7556;
GeneExpression;0.077;0.0091;1;0.7894;
MFA;0.805;0.7556;0.7894;1.7081;

RV
   ;GI50;CopyNumber;GeneExpression;MFA;
GI50;1;0.0306;0.077;0.616;
CopyNumber;0.0306;1;0.0091;0.5782;
GeneExpression;0.077;0.0091;1;0.604;
MFA;0.616;0.5782;0.604;1;

coord
   ;Dim.1;Dim.2;Dim.3;
GI50;0.5921;0.0188;0.3891;
CopyNumber;0.2878;0.6717;0.0406;
GeneExpression;0.4959;0.2251;0.2789;

contrib
   ;Dim.1;Dim.2;Dim.3;
GI50;43.0365;2.0538;54.9097;
CopyNumber;20.9171;73.3589;5.724;
GeneExpression;36.0464;24.5873;39.3663;

cos2
   ;Dim.1;Dim.2;Dim.3;
GI50;0.3506;4e-04;0.1514;
CopyNumber;0.0828;0.4511;0.0016;
GeneExpression;0.246;0.0507;0.0778;

dist2
1;1;1;
correlation
  ;Dim.1;Dim.2;Dim.3;
GI50;0.769486888711507;0.137129430969499;0.623767141859096
CopyNumber;0.536455700559275;0.819545786678433;0.201395096452434
GeneExpression;0.704229127109893;0.4744630647652;0.52815351622767

0.4586112;0.3051917;0.2361972;
coord
   ;Dim.1;Dim.2;Dim.3;
1;0.7653;0.1412;0.3221;
2;-2.0545;-0.8049;-1.6813;
3;-2.2493;-0.0661;0.5111;
4;1.0433;0.253;0.4534;
5;-1.1777;0.7632;-0.409;
6;-1.7915;-1.0527;-0.2913;
7;1.764;0.9227;-0.5663;
8;-1.2567;-0.8219;-0.0955;
9;0.985;-0.9119;-0.6977;
10;0.2262;-1.9292;1.4937;
11;2.0514;-0.5706;0.1191;
12;-2.2493;-0.0661;0.5111;
13;0.2782;-6e-04;-0.1013;
14;0.9575;0.207;0.4542;
15;0.5122;-0.0368;0.4756;
16;0.9502;0.4427;-0.4039;
17;0.1982;-0.6558;2.0912;
18;0.7074;-0.0182;0.7821;
19;0.5467;0.2149;-0.3596;
20;1.9962;1.0028;-0.4094;
21;0.728;-1.5954;1.258;
22;0.2671;-1.5792;0.3189;
23;-0.8619;2.1345;0.4952;
24;0.0104;-0.2156;0.1565;
25;0.5046;-0.0059;0.3504;
26;-0.7095;-0.2397;-1.1335;
27;-1.0392;0.7287;-0.0209;
28;0.7244;0.6531;-1.5886;
29;-1.3686;1.747;0.9137;
30;-0.2215;-1.1642;-2.1007;
31;0.911;-0.9482;-0.7092;
32;-1.4431;1.6235;1.2135;
33;0.5769;-1.3915;0.2393;
34;0.1327;0.09;-0.7039;
35;1.4683;2.1238;-0.2217;
36;1.487;0.8178;-0.7207;
37;-1.3089;-0.6417;-0.8401;
38;0.0069;-0.324;0.5375;
39;0.5122;-0.0368;0.4756;
40;-0.8817;0.6542;0.547;
41;-1.6978;0.5568;-0.6646;

contrib
   ;Dim.1;Dim.2;Dim.3;
1;1.0383;0.0531;0.357;
2;7.483;1.7258;9.7304;
3;8.9693;0.0116;0.8993;
4;1.9295;0.1705;0.7075;
5;2.4587;1.5516;0.5757;
6;5.6898;2.9523;0.2921;
7;5.5165;2.2678;1.1037;
8;2.7998;1.7994;0.0314;
9;1.7198;2.2153;1.6754;
10;0.0907;9.9144;7.6798;
11;7.4605;0.8673;0.0488;
12;8.9693;0.0116;0.8993;
13;0.1372;0;0.0353;
14;1.6254;0.1141;0.71;
15;0.4651;0.0036;0.7785;
16;1.6006;0.5222;0.5616;
17;0.0696;1.1456;15.0529;
18;0.8872;9e-04;2.1056;
19;0.5299;0.1231;0.4452;
20;7.0644;2.679;0.5768;
21;0.9395;6.7806;5.447;
22;0.1265;6.6433;0.35;
23;1.3169;12.1373;0.844;
24;2e-04;0.1239;0.0843;
25;0.4513;1e-04;0.4226;
26;0.8923;0.153;4.4225;
27;1.9146;1.4146;0.0015;
28;0.9303;1.1363;8.6871;
29;3.3205;8.1307;2.8736;
30;0.087;3.6106;15.1899;
31;1.4712;2.3951;1.731;
32;3.6917;7.0217;5.0688;
33;0.59;5.1583;0.1971;
34;0.0312;0.0216;1.7054;
35;3.8218;12.0154;0.1692;
36;3.9196;1.7818;1.7877;
37;3.0372;1.0971;2.4291;
38;1e-04;0.2796;0.9945;
39;0.4651;0.0036;0.7785;
40;1.3782;1.14;1.03;
41;5.1101;0.826;1.5202;

cos2
   ;Dim.1;Dim.2;Dim.3;
1;0.8257;0.0281;0.1462;
2;0.5485;0.0842;0.3673;
3;0.9501;8e-04;0.0491;
4;0.8015;0.0471;0.1514;
5;0.6491;0.2726;0.0783;
6;0.729;0.2517;0.0193;
7;0.7264;0.1987;0.0749;
8;0.6976;0.2984;0.004;
9;0.4239;0.3634;0.2127;
10;0.0085;0.6199;0.3716;
11;0.9253;0.0716;0.0031;
12;0.9501;8e-04;0.0491;
13;0.883;0;0.1169;
14;0.7864;0.0367;0.1769;
15;0.5356;0.0028;0.4617;
16;0.7154;0.1553;0.1293;
17;0.0081;0.0888;0.9031;
18;0.4498;3e-04;0.5499;
19;0.63;0.0974;0.2726;
20;0.7726;0.195;0.0325;
21;0.1138;0.5465;0.3397;
22;0.0268;0.9351;0.0381;
23;0.134;0.8218;0.0442;
24;0.0015;0.6541;0.3444;
25;0.6746;1e-04;0.3253;
26;0.2727;0.0311;0.6961;
27;0.6702;0.3295;3e-04;
28;0.151;0.1227;0.7262;
29;0.3252;0.5299;0.1449;
30;0.0084;0.233;0.7586;
31;0.3718;0.4028;0.2253;
32;0.3364;0.4258;0.2379;
33;0.1431;0.8323;0.0246;
34;0.0338;0.0155;0.9507;
35;0.321;0.6716;0.0073;
36;0.6504;0.1968;0.1528;
37;0.6052;0.1455;0.2493;
38;1e-04;0.2664;0.7335;
39;0.5356;0.0028;0.4617;
40;0.5167;0.2844;0.1989;
41;0.7932;0.0853;0.1215;

within.inertia
   ;Dim.1;Dim.2;Dim.3;
1;0.439;0.1704;1.0439;
2;8.4541;0.1186;10.283;
3;0.6188;5.6736;5.7367;
4;0.9065;0.2536;2.0175;
5;0.8646;2.4747;1.6846;
6;3.0629;0.6619;6.5996;
7;2.506;2.1422;5.3944;
8;1.6121;0.3916;3.3207;
9;0.9265;4.3503;0.2577;
10;8.6421;3.4176;3.5473;
11;0.309;5.4463;4.5089;
12;0.6188;5.6736;5.7367;
13;0.014;0.1061;0.0802;
14;0.8122;0.2137;1.7121;
15;0.5327;0.0916;0.5819;
16;0.7252;0.7807;1.4626;
17;8.581;1.7271;2.6556;
18;1.3806;0.1421;1.2605;
19;0.3106;0.383;0.4414;
20;2.793;2.2689;6.9374;
21;5.8744;3.2865;2.7622;
22;2.9015;2.7047;1.1603;
23;4.1566;8.8263;0.8275;
24;0.1022;0.0398;0.0427;
25;0.3243;0.0901;0.4915;
26;2.7908;0.1456;1.8185;
27;0.2893;2.5422;0.9129;
28;4.9561;2.247;1.841;
29;2.8065;10.7809;0.4659;
30;9.1403;4.0208;2.2481;
31;1.0465;4.2192;0.1714;
32;3.2023;11.6135;0.3452;
33;1.9852;2.9899;0.8257;
34;0.8601;0.3393;0.1912;
35;7.2349;1.6062;7.7068;
36;2.2824;1.9439;3.8504;
37;2.7878;0.0434;4.0108;
38;0.6639;0.1563;0.2259;
39;0.5327;0.0916;0.5819;
40;0.4615;2.8436;0.2893;
41;1.4904;2.9815;3.9682;

coord.partiel
  ;Dim.1;Dim.2;Dim.3;
1.GI50;1.49759899931785;0.327160577435251;1.69161587836421
1.CopyNumber;0.208558819827937;-0.390574506932253;-0.10910094957979
1.GeneExpression;0.589764952160783;0.487083436787374;-0.616325440049316
2.GI50;-5.3316018240054;-1.16472429014106;-6.02232126671508
2.CopyNumber;0.208558819827937;-0.390574506932253;-0.10910094957979
2.GeneExpression;-1.04054095073374;-0.859376706846458;1.0874024592351
3.GI50;-2.17730727332246;-0.475647423054243;-2.4593816884946
3.CopyNumber;-1.50162350276115;2.81213644991222;0.785526836974491
3.GeneExpression;-3.06907623957257;-2.53473217941567;3.20729429066478
4.GI50;2.07945915915257;0.454271844179421;2.34885715978352
4.CopyNumber;0.208558819827937;-0.390574506932253;-0.10910094957979
4.GeneExpression;0.841780236066368;0.695221390997669;-0.879690413134252
5.GI50;-1.90168930287444;-0.415436823017531;-2.14805687098019
5.CopyNumber;-1.50162350276115;2.81213644991222;0.785526836974491
5.GeneExpression;-0.129748321322918;-0.107158382395924;0.135591630092672
6.GI50;-3.0347854036052;-0.662969289835125;-3.42794778742832
6.CopyNumber;0.208558819827937;-0.390574506932253;-0.10910094957979
6.GeneExpression;-2.54836459576069;-2.10467946754487;2.66313202426467
7.GI50;1.71196853188854;0.373991044130471;1.93375740309764
7.CopyNumber;0.208558819827937;-0.390574506932253;-0.10910094957979
7.GeneExpression;3.37157245784093;2.78456204310884;-3.52341364322114
8.GI50;-1.99356195969045;-0.435507023029768;-2.25183181015166
8.CopyNumber;0.208558819827937;-0.390574506932253;-0.10910094957979
8.GeneExpression;-1.9851723121479;-1.63954224284343;2.07457597196233
9.GI50;-0.00298772867694313;-0.000652689431292224;-0.00337479476980367
9.CopyNumber;1.91874114241702;-3.59328546377672;-1.00372873613407
9.GeneExpression;1.0391040361762;0.85818996748785;-1.0859008321992
10.GI50;1.92633806445922;0.420821510825692;2.17589892783107
10.CopyNumber;1.91874114241702;-3.59328546377672;-1.00372873613407
10.GeneExpression;-3.16635536072519;-2.61507443862431;3.30895444685468
11.GI50;2.66131931898729;0.581383110923591;3.00609844120284
11.CopyNumber;1.91874114241702;-3.59328546377672;-1.00372873613407
11.GeneExpression;1.57424414601152;1.30015906535703;-1.64514136094526
12.GI50;-2.17730727332246;-0.475647423054243;-2.4593816884946
12.CopyNumber;-1.50162350276115;2.81213644991222;0.785526836974491
12.GeneExpression;-3.06907623957257;-2.53473217941567;3.20729429066478
13.GI50;0.211381803893743;0.0461777772639284;0.238766729963628
13.CopyNumber;0.208558819827937;-0.390574506932253;-0.10910094957979
13.GeneExpression;0.414746903502297;0.342537050420972;-0.433425327960921
14.GI50;1.95696228339789;0.427511577496438;2.21049057422156
14.CopyNumber;0.208558819827937;-0.390574506932253;-0.10910094957979
14.GeneExpression;0.707076007224852;0.583969953465602;-0.73891968267108
15.GI50;1.34447790462451;0.293710244081522;1.51865764641176
15.CopyNumber;0.208558819827937;-0.390574506932253;-0.10910094957979
15.GeneExpression;-0.0163856856158399;-0.0135328422528996;0.0171236267273799
16.GI50;0.762617744789789;0.166598977337352;0.861416364992449
16.CopyNumber;0.208558819827937;-0.390574506932253;-0.10910094957979
16.GeneExpression;1.8794458883698;1.55222340562803;-1.96408808281067
17.GI50;3.12068260306732;0.681734110984777;3.52497313706019
17.CopyNumber;0.208558819827937;-0.390574506932253;-0.10910094957979
17.GeneExpression;-2.73463777872371;-2.25852140373747;2.8577941537087
18.GI50;2.0488349402139;0.447581777508675;2.31426551339303
18.CopyNumber;0.208558819827937;-0.390574506932253;-0.10910094957979
18.GeneExpression;-0.135117774727091;-0.111592982668783;0.141202900684502
19.GI50;0.242006022832411;0.0528678439346741;0.273358376354117
19.CopyNumber;0.208558819827937;-0.390574506932253;-0.10910094957979
19.GeneExpression;1.18959775423763;0.982481852144107;-1.24317214286125
20.GI50;2.26320447278459;0.494412244203896;2.55640703812647
20.CopyNumber;0.208558819827937;-0.390574506932253;-0.10910094957979
20.GeneExpression;3.51697426808744;2.90464855077684;-3.67536372834542
21.GI50;2.32445291066192;0.507792377545387;2.62559033090744
21.CopyNumber;1.91874114241702;-3.59328546377672;-1.00372873613407
21.GeneExpression;-2.05928623529819;-1.70075250003076;2.15202766883246
22.GI50;0.364502898587089;0.0796281106176572;0.411724961916078
22.CopyNumber;1.91874114241702;-3.59328546377672;-1.00372873613407
22.GeneExpression;-1.48189726162084;-1.22389031174456;1.54863556833968
23.GI50;0.211381803893743;0.0461777772639284;0.238766729963628
23.CopyNumber;-3.21180582535023;6.01484740675669;1.68015462352877
23.GeneExpression;0.414746903502297;0.342537050420972;-0.433425327960921
24.GI50;0.180757584955071;0.0394877105931822;0.204175083573136
24.CopyNumber;0.208558819827937;-0.390574506932253;-0.10910094957979
24.GeneExpression;-0.358155310569109;-0.295798383638253;0.374285092024809
25.GI50;1.16073259099249;0.253569844057047;1.31110776806882
25.CopyNumber;0.208558819827937;-0.390574506932253;-0.10910094957979
25.GeneExpression;0.144372995591158;0.119236815640171;-0.150874937062554
26.GI50;-2.6366705574025;-0.57599842311543;-2.97825638435195
26.CopyNumber;0.208558819827937;-0.390574506932253;-0.10910094957979
26.GeneExpression;0.299676521366108;0.247501092455041;-0.313172668580452
27.GI50;-1.16670804834638;-0.254875222919632;-1.31785735760843
27.CopyNumber;-1.50162350276115;2.81213644991222;0.785526836974491
27.GeneExpression;-0.449365337505719;-0.371128213305108;0.469602827984966
28.GI50;-1.19733226728504;-0.261565289590378;-1.35244900399892
28.CopyNumber;0.208558819827937;-0.390574506932253;-0.10910094957979
28.GeneExpression;3.16198312545465;2.61146343499614;-3.30438530483084
29.GI50;0.0582607092003942;0.0127274439101991;0.0658084980111751
29.CopyNumber;-3.21180582535023;6.01484740675669;1.68015462352877
29.GeneExpression;-0.952256685155004;-0.786463246433474;0.995142248395356
30.GI50;-3.67789400131726;-0.803460689920786;-4.15437236162862
30.CopyNumber;1.91874114241702;-3.59328546377672;-1.00372873613407
30.GeneExpression;1.09474217184178;0.904141179470085;-1.14404467123538
31.GI50;-0.12548460443162;-0.0274129561142754;-0.141741380331764
31.CopyNumber;1.91874114241702;-3.59328546377672;-1.00372873613407
31.GeneExpression;0.939683236104247;0.776078908141625;-0.982002545042769
32.GI50;0.364502898587089;0.0796281106176572;0.411724961916078
32.CopyNumber;-3.21180582535023;6.01484740675669;1.68015462352877
32.GeneExpression;-1.48189726162084;-1.22389031174456;1.54863556833968
33.GI50;0.701369306912449;0.15321884399586;0.792233072211467
33.CopyNumber;1.91874114241702;-3.59328546377672;-1.00372873613407
33.GeneExpression;-0.889362408138817;-0.734519229599205;0.929415482475198
34.GI50;-0.829841640021015;-0.181284489541429;-0.937349247313038
34.CopyNumber;0.208558819827937;-0.390574506932253;-0.10910094957979
34.GeneExpression;1.01929960598881;0.84183360401805;-1.06520449528489
35.GI50;2.17133181596858;0.474342044191658;2.45263209895499
35.CopyNumber;-1.50162350276115;2.81213644991222;0.785526836974491
35.GeneExpression;3.73514506940935;3.08483454406991;-3.90336000828371
36.GI50;1.09948415311515;0.240189710715556;1.24192447528784
36.CopyNumber;0.208558819827937;-0.390574506932253;-0.10910094957979
36.GeneExpression;3.15282718929836;2.60390160068627;-3.29481702451863
37.GI50;-3.09603384148254;-0.676349423176616;-3.4971310802093
37.CopyNumber;0.208558819827937;-0.390574506932253;-0.10910094957979
37.GeneExpression;-1.03925874331082;-0.858317739208685;1.08606250668066
38.GI50;0.701369306912449;0.15321884399586;0.792233072211467
38.CopyNumber;0.208558819827937;-0.390574506932253;-0.10910094957979
38.GeneExpression;-0.889362408138817;-0.734519229599205;0.929415482475198
39.GI50;1.34447790462451;0.293710244081522;1.51865764641176
39.CopyNumber;0.208558819827937;-0.390574506932253;-0.10910094957979
39.GeneExpression;-0.0163856856158399;-0.0135328422528996;0.0171236267273799
40.GI50;-0.156108823370289;-0.034103022785021;-0.176333026722254
40.CopyNumber;-1.50162350276115;2.81213644991222;0.785526836974491
40.GeneExpression;-0.987433986833153;-0.815515974873037;1.03190378510095
41.GI50;-3.00416118466654;-0.656279223164379;-3.39335614103784
41.CopyNumber;-1.50162350276115;2.81213644991222;0.785526836974491
41.GeneExpression;-0.587646885525228;-0.485334137897349;0.614111984762716

within.partial.inertia
  ;Dim.1;Dim.2;Dim.3;
1.GI50;0.26843071362361;0.0134847269553655;0.66550280225008
1.CopyNumber;0.155161104059902;0.110306595490897;0.0659595361797408
1.GeneExpression;0.0154251561863893;0.0466562637097662;0.312433670376033
2.GI50;5.37572175577718;0.0505020811479756;6.68602846726002
2.CopyNumber;2.56369733905087;0.0669537342550137;0.877060384011095
2.GeneExpression;0.514670328502331;0.00115787181830359;2.71992843889402
3.GI50;0.00259699937933783;0.065427028002289;3.13083176699033
3.CopyNumber;0.27985509987781;3.23114040079235;0.0267115085827785
3.GeneExpression;0.336369944936927;2.37699380263528;2.57916886529824
4.GI50;0.53745945728851;0.0158048931404458;1.27479639687044
4.CopyNumber;0.348764844047807;0.161536144345236;0.112245728308531
4.GeneExpression;0.0203213880642895;0.0762853795600402;0.630496158269323
5.GI50;0.262388122610693;0.541818946624031;1.0730753185711
5.CopyNumber;0.0525271687552462;1.63747202811839;0.506254940717358
5.GeneExpression;0.549713120961906;0.295450886623027;0.105220790099047
6.GI50;0.77372167631418;0.059255604915206;3.49077895145088
6.CopyNumber;2.00245637275899;0.171018513678088;0.0117790742063806
6.GeneExpression;0.28672517626991;0.431607727111045;3.09700583761133
7.GI50;0.00135691205781491;0.117416366716518;2.21756216832809
7.CopyNumber;1.21112813048921;0.672655765782347;0.074150243122254
7.GeneExpression;1.29356264398712;1.35214257672835;3.10271863564407
8.GI50;0.271773403984205;0.0582250591971803;1.64984365142244
8.CopyNumber;1.07475116632905;0.0725550583863371;6.60958405511807e-05
8.GeneExpression;0.265619795766968;0.260772772292919;1.67079493846813
9.GI50;0.488568714404645;0.323889179593005;0.171032389483942
9.CopyNumber;0.436477155106052;2.80428344928284;0.0332358871199121
9.GeneExpression;0.00146786514471889;1.22210120761749;0.0534781815612793
10.GI50;1.44681038899173;2.15399502189273;0.165121638718627
10.CopyNumber;1.43390906667204;1.08011645744496;2.21300016981971
10.GeneExpression;5.76141002185135;0.18349483845942;1.16913179282236
11.GI50;0.186191327539545;0.517590838628534;2.95728150209996
11.CopyNumber;0.00881383895168449;3.56369032216614;0.447302105364667
11.GeneExpression;0.113985159699477;1.36500911075081;1.10432428117526
12.GI50;0.00259699937933779;0.065427028002289;3.13083176699033
12.CopyNumber;0.27985509987781;3.23114040079235;0.0267115085827785
12.GeneExpression;0.336369944936928;2.37699380263528;2.57916886529824
13.GI50;0.0022368301217664;0.000854195104522855;0.0410205127171216
13.CopyNumber;0.0024297432598654;0.0593112035416692;2.18516677511269e-05
13.GeneExpression;0.00932915760578293;0.0459297617150741;0.039148831586239
14.GI50;0.499998861566727;0.0189711418229439;1.09447680748064
14.CopyNumber;0.280800120521884;0.139266828408768;0.112565809210034
14.GeneExpression;0.0313999145985537;0.0554362046248062;0.505043563997089
15.GI50;0.346723519649793;0.0426065063401909;0.386048814370451
15.CopyNumber;0.0461566557458103;0.0488162088501912;0.121283219593167
15.GeneExpression;0.139869518422809;0.000211134524772449;0.0745676956593944
16.GI50;0.0176149935529431;0.0297440221158487;0.568077069766735
16.CopyNumber;0.275334584305784;0.270854578060627;0.030840109257377
16.GeneExpression;0.432233703694353;0.480112438751826;0.863640120215212
17.GI50;4.27531221760806;0.697766435075897;0.729356509861716
17.CopyNumber;5.37010807116035e-05;0.0274345246401695;1.71777106802605
17.GeneExpression;4.30567030031685;1.00191662935675;0.208496289875456
18.GI50;0.900714502888516;0.0846183819983317;0.832896426562743
18.CopyNumber;0.124575610710868;0.0540853446969224;0.281815957108029
18.GeneExpression;0.355343670147453;0.00340236885911671;0.145746948531548
19.GI50;0.0464784403873939;0.0102434293128268;0.142165807802693
19.CopyNumber;0.0572419015234282;0.143000082678284;0.0222708672730335
19.GeneExpression;0.206880689091659;0.229789216995203;0.276973883790665
20.GI50;0.0356740340491624;0.100820283703341;3.12078799796834
20.CopyNumber;1.59973227951376;0.75729006799202;0.0319862283949546
20.GeneExpression;1.15762433898072;1.41074114888523;3.78466737453077
21.GI50;1.27583135618171;1.72533282177359;0.663632839161082
21.CopyNumber;0.709776246147605;1.55683712091189;1.81492731939191
21.GeneExpression;3.88882045506867;0.00432785810313575;0.283615630926778
22.GI50;0.00474754431638142;1.07325333976327;0.00305868431251138
22.CopyNumber;1.36548682014961;1.58223841253816;0.620659431774823
22.GeneExpression;1.53126491053841;0.0492356938464554;0.536576822376904
23.GI50;0.576614671009315;1.70103111911148;0.0233251111029931
23.CopyNumber;2.76419109013654;5.87279966298973;0.498220078825766
23.GeneExpression;0.815831990156575;1.25249706743214;0.305943346779376
24.GI50;0.0145295912471067;0.0253854202893655;0.000808034315047241
24.CopyNumber;0.0196583917432825;0.0119376051164439;0.0250206252572428
24.GeneExpression;0.0679890715293929;0.00250687265284674;0.0168358794033345
25.GI50;0.215529826469754;0.0262638322709982;0.327488093697113
25.CopyNumber;0.0438567010244798;0.0577091070699752;0.0749069796282445
25.GeneExpression;0.064939340203268;0.00610992350945284;0.0891466481860622
26.GI50;1.85914971617016;0.0441146174893331;1.20744043934541
26.CopyNumber;0.421876088821304;0.00887961999225763;0.372339572646073
26.GeneExpression;0.509776741995402;0.0925781250829405;0.23876866650412
27.GI50;0.00813428704739848;0.377340558923278;0.596812065149148
27.CopyNumber;0.107024562334512;1.69302955054436;0.230744983767888
27.GeneExpression;0.174169645382342;0.471809861149123;0.0853673419409288
28.GI50;1.84863661444616;0.326317593798233;0.0197941911981114
28.CopyNumber;0.133199249722932;0.424859485542735;0.776690927576625
28.GeneExpression;2.97428134892797;1.495862583496;1.04446873696182
29.GI50;1.01912592986139;1.17317269241916;0.255079043986528
29.CopyNumber;1.70063735180234;7.10425931893832;0.208431450136123
29.GeneExpression;0.086769835023522;2.50351721017006;0.00235327564961025
30.GI50;5.9802356087664;0.05075742054672;1.49640188302505
30.CopyNumber;2.29286065640723;2.30140794335787;0.426967642781822
30.GeneExpression;0.867194039681854;1.66860547382742;0.324726120103793
31.GI50;0.537741080465626;0.330699200787652;0.114234110189893
31.CopyNumber;0.50836964417691;2.72888913609102;0.0307873917266895
31.GeneExpression;0.000412409188948915;1.15964996277976;0.0264134027164676
32.GI50;1.6355144992676;0.929709157549907;0.228088251625048
32.CopyNumber;1.56600043640251;7.52139825697719;0.0772634552420143
32.GeneExpression;0.000754763713645265;3.16235979827933;0.039849266797964
33.GI50;0.00775313085380706;0.930729737773382;0.108474370381361
33.CopyNumber;0.901272602473848;1.89080752378822;0.548225630148562
33.GeneExpression;1.07621047452052;0.168364978580077;0.168977005143033
34.GI50;0.463744049005473;0.028703274077013;0.0193389783830462
34.CopyNumber;0.00288266407902165;0.090077177681569;0.125519401600905
34.GeneExpression;0.393501660963402;0.220476271123547;0.0463207324737165
35.GI50;0.247419249516051;1.06114772147443;2.53766329560945
35.CopyNumber;4.41519927313702;0.184819045518606;0.359978043633158
35.GeneExpression;2.57225463985814;0.360257313420035;4.80918842843834
36.GI50;0.07515298743543;0.130147850312022;1.36663044496667
36.CopyNumber;0.818081224655988;0.569560293895243;0.132701419290952
36.GeneExpression;1.38914246166076;1.24423380154051;2.35104496077147
37.GI50;1.59872223479277;0.000466999092124008;2.50495465429511
37.CopyNumber;1.15266896048605;0.0246067090728306;0.189572059126402
37.GeneExpression;0.0363976435483427;0.0182939409721463;1.31631132846459
38.GI50;0.241449561692441;0.0888112275524166;0.0230201918685295
38.CopyNumber;0.0203653342311182;0.00173088591679191;0.148349598044822
38.GeneExpression;0.402060409560518;0.0657451698653306;0.054493167603994
39.GI50;0.346723519649793;0.0426065063401909;0.386048814370451
39.CopyNumber;0.0461566557458103;0.0488162088501912;0.121283219593167
39.GeneExpression;0.139869518422809;0.000211134524772449;0.0745676956593944
40.GI50;0.263557132548354;0.184770757940769;0.185655592358024
40.CopyNumber;0.19235769304812;1.8163393315401;0.0201812660850029
40.GeneExpression;0.00559386448815966;0.842479181958903;0.0834152115084075
41.GI50;0.85424779417311;0.574005847885495;2.64198657619892
41.CopyNumber;0.0192665908908877;1.98388039866748;0.746084218498978
41.GeneExpression;0.616933460053766;0.423633262166598;0.580121728216696

  ;group;variable;moyenne;ecart.type;minimum;maximum;
1;1;GI50;5.04;0.64;3.3;6.06
2;2;CopyNumber;2.12;0.8;1;4
3;3;GeneExpression;6.58;1.37;4.17;9.42

coord
   ;Dim.1;Dim.2;Dim.3;
GI50;0.7695;0.1371;0.6238;
CopyNumber;-0.5365;0.8195;0.2014;
GeneExpression;0.7042;0.4745;-0.5282;

contrib
   ;Dim.1;Dim.2;Dim.3;
GI50;43.0365;2.0538;54.9097;
CopyNumber;20.9171;73.3589;5.724;
GeneExpression;36.0464;24.5873;39.3663;

cos2
   ;Dim.1;Dim.2;Dim.3;
GI50;0.5921;0.0188;0.3891;
CopyNumber;0.2878;0.6717;0.0406;
GeneExpression;0.4959;0.2251;0.2789;

cor
   ;Dim.1;Dim.2;Dim.3;
GI50;0.7695;0.1371;0.6238;
CopyNumber;-0.5365;0.8195;0.2014;
GeneExpression;0.7042;0.4745;-0.5282;

coord
   ;Dim.1;Dim.2;Dim.3;
Dim1.GI50;0.7695;0.1371;0.6238;
Dim1.CopyNumber;-0.5365;0.8195;0.2014;
Dim1.GeneExpression;0.7042;0.4745;-0.5282;

cor
   ;Dim.1;Dim.2;Dim.3;
Dim1.GI50;0.7695;0.1371;0.6238;
Dim1.CopyNumber;-0.5365;0.8195;0.2014;
Dim1.GeneExpression;0.7042;0.4745;-0.5282;

contrib
   ;Dim.1;Dim.2;Dim.3;
Dim1.GI50;43.0365;2.0538;54.9097;
Dim1.CopyNumber;20.9171;73.3589;5.724;
Dim1.GeneExpression;36.0464;24.5873;39.3663;

cor.between
   ;Dim.1.GI50;Dim.1.CopyNumber;Dim.1.GeneExpression;
Dim.1.GI50;1;-0.1748;0.2775;
Dim.1.CopyNumber;-0.1748;1;-0.0953;
Dim.1.GeneExpression;0.2775;-0.0953;1;

