5.775579238	8.173545086	4.323607044	7.3318469	5.405209646	9.008384679	5.466756713	6.006516816	8.61200782	5.139543078	6.112092335	7.701076178	4.746003121	11.41422379	6.61108729	4.676698099	8.646745685	4.618531917	7.093771676	3.411867561	8.519587066	4.910842156	6.923457522	7.700458345	5.847347201	4.222200427	8.930960165	5.557027509	5.109613249	5.502772816	8.903209327	8.819930361	7.761182937	7.632670111	7.728287581	4.302693025	6.624064285	4.341122572	9.485465498	7.383596724	10.39901448	5.247203629	6.699064895	7.972791923	5.044334414	6.383873275	5.125541961	2.859574122
5.336441453	9.060425805	4.685475561	6.295237003	5.53526612	8.763319974	7.219291142	6.118367967	7.720126185	4.527629245	4.400881911	8.033232091	5.335350143	11.99917683	6.232457671	5.077202335	6.173717847	7.156374609	6.783413338	3.655740992	7.456461707	5.871753647	7.085102037	7.977433138	5.784513041	4.740694343	9.301964583	5.514829009	5.302158201	5.616320331	8.945535193	6.544688807	8.282065958	7.488269453	8.627107684	4.617639418	6.030193615	4.806458073	9.356968924	7.663871638	10.68759354	5.639463925	6.108003529	8.16953084	5.49129396	6.580409823	6.975556753	3.26869376
7.095825483	8.418604006	4.2574887	6.838037452	5.400708396	8.790964204	6.479314508	6.067720245	7.361014078	4.317850477	6.334901061	6.363030002	4.997919661	11.78968288	6.665981763	4.897991561	6.927235155	7.573903241	7.532323462	3.571549443	5.906062273	5.16136473	7.118335646	8.330268078	5.858615555	4.592168206	8.695498698	5.549822968	5.138023631	5.566900652	7.724445676	5.884440343	7.770965981	7.576545702	8.408491717	4.308143462	7.187531042	4.725037301	9.827890316	5.834822938	10.4435103	5.365994906	7.635731957	8.451927702	5.641934098	6.219044558	4.829917701	2.840664609
9.354861938	8.392058738	4.327367065	7.300129647	5.340783791	8.956633254	4.637145777	5.858164495	8.959837217	4.525892695	7.544872838	6.938446158	4.912608519	11.77416722	6.701000431	4.524912539	6.533846325	7.279813738	6.929209639	3.330752517	5.894357158	4.467360766	6.934915613	8.479851052	5.720512627	3.912782826	8.885800342	5.653456198	5.014918966	5.3452539	8.379152394	6.717626329	7.861886944	7.352229495	7.923741131	4.079567954	7.095422457	4.514480626	9.99610286	5.568640515	10.05513446	5.14166079	7.374166971	7.830783651	5.762022879	6.659516135	4.200491115	2.971526101
5.292324161	7.828089889	5.406777088	7.213764445	6.362621024	7.85210665	9.146138396	5.923982173	7.865773192	7.070166651	7.063482475	7.582597866	4.966074749	11.41345439	8.031925792	4.56636336	5.582504151	9.612871421	11.83014186	3.682195117	10.16700338	10.085589	6.744142265	10.22853307	5.587729683	9.560735382	8.246259005	5.449546287	5.28687216	5.488109448	8.084192357	5.504212837	8.579102057	8.635988072	8.497083007	4.247052345	5.624561776	4.761593535	9.90734896	8.240171466	10.58137105	5.160450198	4.898989442	10.00703446	8.250263861	8.090179146	5.07192466	2.988052649
8.249989541	9.027847629	4.924420007	7.499256381	5.427093873	9.279511401	5.066108083	5.880137647	7.774206644	3.972606051	7.381419246	6.122301779	5.157306377	11.95930413	6.954923381	4.777683937	5.808977918	6.939607818	6.897884683	3.619245296	5.784528417	5.042251355	7.003696156	8.284594256	5.771862195	4.805356378	9.055950308	5.433831694	5.052784441	5.508008472	8.165623155	5.689286852	8.35708333	7.896519959	8.893701011	4.305114055	6.025406069	4.511868689	9.890190602	6.501958514	10.84780796	5.367798916	5.435484475	7.800337896	5.101893142	6.271295742	4.615028672	2.962516736
5.578121116	8.805671262	4.923182564	6.085358668	5.672325845	8.756541562	7.369585233	5.837936911	8.792008804	7.600053315	6.349402996	9.705025787	5.076232522	11.66881716	6.376184091	4.914450282	8.603876115	8.525041265	7.016030201	3.530553743	8.313710657	5.006140967	7.145593875	8.686425614	6.045420897	4.230961094	9.701764382	5.391399104	5.844605879	5.675538441	8.246504026	9.642073955	8.520039403	7.543767707	8.695913557	4.442442406	5.587565345	4.668147578	10.20516428	8.100308471	10.57272405	5.356890097	5.427026717	9.740514936	8.269035196	6.78685209	5.247881747	3.744738287
6.371088654	8.86111692	4.55535632	7.404637591	5.413668728	8.574928964	4.166445536	6.088250105	8.468577436	5.355102504	7.2166837	5.189973973	5.140111892	11.52233021	6.558642119	5.033370739	6.103818443	5.854735534	6.841730659	3.538895924	6.782231196	6.319843398	10.9062125	8.626133117	5.847038989	5.19326245	8.856773528	5.763963021	5.422879623	5.996926925	7.828787984	5.772169671	8.121592799	7.255277293	8.588323824	4.576788442	6.106771542	4.457875682	10.41622941	7.291220594	10.96710363	5.910363031	6.449975295	9.796470509	5.207324938	5.527147657	7.423162342	3.23480647
5.293581801	8.045700179	6.820277144	6.781877645	5.215582322	8.796471302	7.777181257	5.898964448	7.206541188	4.812287395	5.215282217	7.058275024	5.306826996	11.5747373	6.831353445	4.755020904	5.810617819	9.487705369	9.112648533	3.666693843	7.420879001	10.36424074	6.837616962	7.86448552	5.653138096	9.546383815	8.860271361	5.473344939	5.074755757	5.244099718	8.110750119	7.715858854	7.458876665	7.622235405	8.50352564	4.375679148	5.632631508	4.545072877	9.357253714	7.700580896	10.9374075	5.226220193	4.79617124	9.359057954	7.877363152	7.71777075	4.720190286	3.057216034
9.320497866	8.36097886	5.033878161	7.356319109	5.279772372	9.224254332	4.240539371	5.836127811	7.061842172	4.921876613	6.722509885	6.337638914	5.010777695	11.76834498	6.596070183	4.935852687	6.322822678	10.93566883	7.015534836	3.707361449	5.644768372	4.315048233	6.845337382	8.378271833	5.64550386	3.821231733	8.409439884	5.308494577	4.89355984	5.535837301	7.86911306	6.028734523	7.565419739	8.238767702	9.028604702	4.227670876	7.12557554	4.913389264	10.09916125	6.902945658	10.65074861	5.143999857	7.057788504	8.816518281	5.384469431	6.89836068	4.982689874	3.124692137
5.850102692	7.774372659	7.476536216	6.505906025	5.483140325	8.901825977	6.038247706	5.913300963	8.156687219	5.126155875	7.307413599	8.121381428	5.184577105	11.46684693	6.604111698	4.854393036	5.730892574	7.34882539	6.733233736	3.421951676	9.300477969	8.696095942	6.959656036	8.04690151	5.835764388	3.998501167	8.700253753	5.532567575	5.203595791	5.731700932	7.889617869	6.587473554	9.249050793	8.238651826	8.863785778	4.131004568	5.735652494	4.773688465	10.0975088	8.206316862	10.63022746	5.724590561	5.09178014	9.411545641	6.459443751	5.568209545	6.301061855	5.381925221
5.459983734	8.769799414	6.449076965	6.142516728	5.581788109	8.144782697	7.116692015	6.231369739	7.887141578	5.176036151	4.941120969	9.001096832	5.235743284	11.64917207	6.938214522	5.020604787	6.023617654	7.456260779	6.905151652	3.913021778	7.015818093	4.85441577	7.156536786	7.972599566	5.997608578	5.299156582	10.14709839	5.744566569	6.219781969	5.593352139	8.544060258	11.35087958	8.69151788	7.626536658	9.199348991	4.427213595	6.691539498	4.91850697	10.66806554	7.58546082	10.82150668	5.529559235	7.715291841	9.607861708	7.269211877	7.192031184	5.553565434	3.418845111
5.255535194	9.021629146	5.3969149	6.550278961	5.487477711	7.963255063	6.724736472	5.977272323	8.431800314	6.900526706	5.894015055	8.482178327	5.153943936	11.51833271	7.003036424	4.739238892	6.669740185	7.844704615	6.614316238	3.369103674	7.400182903	4.750106676	7.023640325	8.692617311	5.881670757	5.55169559	9.781396136	5.408455824	8.210052522	5.285631652	8.931318601	9.850340902	8.289413165	7.51920647	9.474269019	4.464083028	6.124694661	4.625474196	10.37239921	7.694769355	10.95331842	5.295654886	7.889589277	9.833134945	7.390566921	7.770240138	5.103175093	3.315373069
5.487287928	8.877792339	5.301315747	6.912711023	5.526765231	8.351888732	8.009641905	5.974550167	8.607369035	6.538614874	4.520279967	8.873454814	4.984504947	11.51751898	7.352716719	4.671899289	7.413826749	10.07285094	6.655096988	3.620115319	7.567987167	4.70124945	7.023469436	8.29836398	5.795901626	4.037732268	9.674922391	5.889707075	5.846814672	5.724820036	8.964035684	9.165522261	8.051515981	7.533389385	9.179500942	4.492203684	5.993759547	4.646136775	9.843461539	7.628917501	10.57170624	5.438376259	8.760502915	8.869263422	6.54365008	7.036422326	4.610990115	2.925879822
6.282386427	8.489162462	4.450819842	7.315883122	5.551138754	9.256973838	4.495268524	6.167651358	9.167707397	4.544436713	7.743370025	5.663545184	5.321060216	11.54304315	6.256996577	5.462817015	5.928723115	5.444993495	7.813356214	3.429991529	6.008250449	5.238585212	7.050322474	8.646068309	5.753147671	4.333488147	8.763752452	5.577815573	5.553535553	5.455453904	8.199631911	5.664462693	7.53889403	7.582011243	7.809306734	4.539660307	7.337427405	4.884216549	9.762998445	6.691436305	9.811567451	5.383920855	5.131548656	8.009291817	5.269596278	6.66381964	6.314440247	3.269553191
5.895153203	7.30118776	4.669100346	7.186807932	5.245153284	8.539396091	6.475224798	6.039843105	7.943910273	4.05056793	6.58427693	7.453271388	5.824528109	11.5560105	6.654531691	4.975322777	6.638762686	5.989292538	6.74957005	3.566783039	7.58963629	4.957594499	6.860932565	8.398148839	5.678778817	4.163113569	8.206558477	5.976731222	5.160152408	5.863328013	8.7006464	5.807553327	7.699959357	7.488083453	7.886720465	4.346620856	6.607497835	4.9221363	10.09074014	8.659108647	10.09671033	5.425624549	6.925940925	7.870930758	5.386592849	6.463268417	7.805591268	4.172321747
6.688956285	9.005905476	5.9141078	6.794599997	5.434118894	8.411274215	7.484210618	5.941688931	8.683144762	5.967286339	5.064131594	7.521203718	5.29785343	11.36467478	7.635528715	4.4445903	6.782881464	9.391622642	8.281979818	3.524256539	9.595345249	5.012082126	7.620500635	8.817930149	6.045789818	5.030928416	9.040706438	5.438901346	5.220543357	5.516796622	8.359524781	10.63340336	8.757098294	7.362041461	8.781186595	4.4379787	5.71332337	4.72486936	9.595283323	6.937357206	10.7013219	5.375772861	8.414265607	9.792538119	6.883571247	7.849570416	5.532647471	2.931474521
5.36189292	8.873570276	5.633644485	7.443160581	5.26306499	8.504796322	9.256885467	5.917270635	7.34537154	5.136144721	6.871642364	7.356694958	5.239900609	11.74935317	7.06426385	4.428140849	5.66465181	8.895166982	11.62878459	3.543647602	8.133831591	10.32749111	7.478078588	9.246605502	5.750875625	8.384333855	8.255816527	5.413956743	7.03222334	5.485364519	7.643948535	6.22230569	8.356426715	7.681651815	8.896428217	4.570665835	5.748887192	4.391755831	10.46180166	8.106375397	10.345203	5.436509116	4.781531811	10.64284485	8.739046527	7.396087332	5.453802007	5.053477335
5.522434985	8.228114078	4.985466134	7.108839634	5.43359219	8.307222771	5.009658305	6.153964803	8.288748099	5.947433795	5.987728417	7.684699296	5.334035224	11.12866792	6.465277924	4.984062544	8.152817408	5.878340595	6.765416013	3.677778774	6.701079881	4.877757335	7.103016413	8.254779948	5.862024246	4.456203241	9.269195752	5.846631349	5.695320699	5.617266567	8.544693995	9.920436637	7.806402905	7.337753502	8.427041811	4.426824078	6.269795857	4.689448428	9.378379402	6.828409826	10.08780838	5.537692374	5.086327714	8.821489453	6.175859404	6.220903463	4.967758802	2.910623793
5.58695635	8.745374485	7.593392377	6.742740138	6.768355679	7.987439678	8.616735935	5.860898569	7.399493596	5.559968322	4.64814821	8.692433421	5.326289168	11.19619072	7.249799497	4.694740348	5.457749711	9.430357347	11.93245772	3.586757456	11.25845346	10.3179959	6.831782335	9.652517327	5.78972407	11.12272975	9.56840475	5.472072524	8.460363401	5.592785268	8.375900232	7.922953724	8.429485536	7.5830931	9.684613696	4.70186557	5.801648569	4.592450536	10.15695457	7.915520733	10.62351639	5.423832102	4.952986199	10.21040292	8.489355552	8.137708981	4.791693904	3.142797151
7.129468864	8.264397641	4.775457872	6.55739779	5.416564585	8.822204561	6.89403597	6.256904322	7.737015606	4.198819396	6.814876768	7.695430199	5.444274083	11.60253815	6.283006656	5.149304761	6.033083176	4.250865676	7.053794663	3.794148206	6.031380829	4.520161609	7.110347895	8.246199846	5.813380876	4.388832945	8.671560071	5.956373764	5.412855368	5.597471219	8.645045434	6.206941908	8.162925093	7.51487246	8.234448502	4.659828915	6.322854852	4.980490012	9.917531062	7.434545896	10.44499084	5.615643218	7.01002692	9.066539253	5.572721272	6.361564873	4.717051431	3.41652245
5.422436578	8.739402284	5.328528527	6.829109896	5.359013704	8.106437541	6.305345525	6.074550151	7.399992751	8.111003502	6.874132149	8.500025635	4.938172606	11.59709141	7.142555056	5.28514551	5.846322888	7.320610244	6.577082329	3.423094618	7.208070148	4.81058448	6.919740793	8.456260278	5.736172846	5.123321335	9.398570702	5.687617668	5.24414212	5.438580327	9.026183001	11.29423763	8.711008694	7.979743624	9.147902519	4.492436466	5.705671089	4.870148423	10.18286441	7.791205325	10.86443045	5.407885055	6.159906897	9.961849199	7.45209328	7.220917039	4.743039497	3.091007557
5.074817646	8.054260171	6.79432642	8.200559512	5.398771348	8.527361504	6.688102369	5.699826271	7.644805332	9.288012158	5.650321328	8.738364442	4.9835399	11.54716708	6.98441898	4.670327977	7.725456131	9.740020347	6.54522657	3.621842618	6.749248715	4.485515002	6.637847139	7.915177411	5.475566834	8.96768511	9.915108554	8.643164131	5.685297389	5.293065907	8.952316014	11.31578254	7.733910081	7.40481661	7.742526242	4.367398087	5.743542606	4.565862813	9.719258978	7.424650959	10.97966758	5.090147803	4.908030734	9.606199717	7.673403113	7.029398619	4.426149818	7.575299643
6.13023857	9.259549041	4.828363143	6.767042792	5.385140537	8.587607232	6.806391203	6.11862255	7.754920726	5.442770665	7.199115753	9.166341174	4.992891327	11.88405833	6.680468448	4.952676737	6.584907465	6.895218395	7.164580288	3.377567076	7.110112881	4.825306841	6.925964189	8.167349385	5.630718608	5.687237587	9.301137232	5.419039869	6.079133497	5.339243137	8.496276215	10.49264244	8.859184703	8.163533902	8.886401387	4.673748907	6.358434299	4.613629866	10.01295899	7.146768621	11.33888216	5.279749847	6.304111335	10.49283995	8.030425006	6.638596437	5.986506626	3.238763038
7.333365166	8.553550083	4.712085923	6.995203005	5.384042764	9.004169536	6.23587429	6.023424426	7.951210622	3.862826413	6.633010169	7.665978728	5.194266608	11.62839425	6.0747569	5.052959851	5.846488461	6.115375188	6.981959165	3.50703085	6.252814685	5.148316135	6.936202989	8.088282298	5.791092125	4.432540626	8.430536776	5.758985819	5.360051757	5.658570524	8.46008638	5.720702573	8.135307699	7.405311719	7.952361787	4.515442386	6.634834421	4.74956514	9.916794187	6.101595518	10.87183757	5.532300273	6.967506231	8.638124649	5.643916616	6.115180213	4.611705881	3.135075776
5.672368364	8.436564522	8.089267813	6.372515055	5.457561988	8.486845085	8.986502112	6.096116416	7.517996464	5.98014167	6.624669641	7.667171002	5.337910808	11.50272536	7.220310864	4.931830034	5.873497527	7.317027218	6.780006933	3.470186315	10.24465229	5.306217064	7.061790269	9.236745901	7.710567047	7.815035627	10.21685478	5.419438566	7.889103877	5.570347475	7.990544345	10.08467784	8.443989024	7.845957146	9.655502008	4.570893011	5.825357409	4.584682945	10.49635546	7.912357802	10.88112871	6.232730221	5.024196676	9.436684096	7.910744551	6.675048961	5.968886387	2.912765561
5.87878137	7.426941136	4.880003927	6.780338914	5.591616162	9.334382139	5.852840931	5.880045138	7.751035661	4.075339919	6.426834825	7.174732497	5.31364825	11.56273049	7.081665632	4.795534665	7.609527196	7.080073705	7.723730095	3.415226754	6.034099221	4.830087199	6.865498061	7.572211013	5.884748213	3.883957867	8.852103029	5.508157338	5.250855125	5.381748091	9.033642618	7.573123268	7.530252128	7.827535182	8.392115485	4.404847397	7.08045583	4.481210266	9.84573601	6.946533665	10.22495818	5.260523482	6.668785459	8.543944307	7.302735133	6.218566488	4.762548609	2.901456546
6.416009132	8.521058829	4.953470827	7.766817814	5.463345383	9.098506185	7.411962701	5.875852914	6.679905279	4.246363688	4.31227835	5.540731584	5.209077744	11.76273756	6.717803167	4.589816162	8.158586422	7.626919149	6.684683888	4.730742517	6.447012579	4.870253517	6.765428457	7.725289175	5.791463199	3.978774601	8.148244284	5.785705386	7.563230144	5.328899909	8.382786013	9.456936777	7.755319865	7.711622236	7.770006077	4.137610962	6.71789508	4.553659524	9.154332025	7.444923124	10.46123762	5.067949961	4.839220899	7.373204889	4.853830081	6.571827737	4.287782822	2.916083459
6.421586802	8.131155331	6.107359809	6.595109824	5.514558279	8.496300966	7.293860162	5.902859566	8.783840733	5.860364484	6.426604392	8.405130294	5.241970788	11.64289706	7.472562686	4.761192881	5.756210168	6.943530987	6.706124358	3.494962492	7.025972887	9.454754999	6.876977289	8.362343713	5.765977625	7.896379896	9.317564011	5.212106411	5.519379143	5.359634025	8.362329264	6.911052529	7.949748536	7.943800932	8.323278421	4.244529047	5.658255619	8.443613116	9.728352774	8.206602742	10.47877702	5.559676062	5.016386139	9.569777979	9.047229441	6.558176147	5.753915715	4.035559276
6.332834494	8.065260643	5.266201199	6.593982025	5.528720696	9.34214549	5.449433694	6.523356998	8.229419688	4.490297718	5.6218263	6.442794452	5.190874355	11.46159036	6.217991855	5.165911694	5.902709262	4.79475932	7.978627812	3.932586032	6.251292419	5.589401531	7.051296578	8.37776709	5.74363464	5.143117545	8.243736787	5.944377404	5.769275513	5.988250066	8.194379791	6.218300562	8.048228423	7.378954292	7.885221393	4.703506532	6.645269552	5.186349588	9.251987971	6.240013472	10.63736803	5.72164703	5.331859881	8.101794902	5.486333603	6.098594369	4.913150555	3.611027162
5.653431596	8.837233604	4.346053636	6.435970316	5.328074713	9.112909853	6.31517168	5.790845816	8.651310905	4.828911335	6.804540114	8.051275997	5.353033723	11.68853206	7.435635293	4.467452316	6.280710461	6.298304821	6.40458809	3.525903804	6.32948363	6.117375662	6.623478769	8.318981571	5.678571342	3.967161162	10.27087701	5.791015692	5.667650386	5.184136974	8.63755432	6.813449283	8.506555531	8.330494453	9.032334505	4.390029977	5.690511606	4.333447063	10.191315	7.12476517	10.97818029	4.851028124	7.866260844	8.638726676	7.411220286	7.187099667	4.391982853	3.066254777
5.560002269	9.246998146	4.890214635	6.580407638	5.500573861	9.080058737	7.354500946	6.092213548	7.300986474	4.472242376	5.223040847	7.827033388	5.228508263	11.88498347	6.416701933	5.107124786	5.747844068	7.729762102	6.619646626	3.99887316	6.809546085	5.145994786	6.938583453	8.253345606	5.703004899	5.58036117	8.80802373	5.505725434	5.570021745	5.5053116	9.444194323	7.249379113	8.898402662	7.585229278	8.400258749	4.20644088	5.891757565	4.761815881	9.351928754	7.55236656	10.79851027	5.471599063	7.24180921	8.21194175	5.394918599	5.854562345	7.342508773	3.490506203
5.489942381	8.446396031	6.274824154	6.733810496	6.072425901	8.17609628	9.423057932	5.63624558	7.250239424	5.394813695	7.129436476	9.533214579	5.066085741	11.43809219	7.323144944	4.637629824	5.650468372	8.37869386	11.44142058	3.537604819	9.738618226	11.02750514	6.819913701	8.250146302	5.64678534	9.010433859	9.411105697	5.596720151	8.370005683	5.527575558	6.936222403	6.973159039	8.20183885	8.876077822	8.475797492	4.379528952	5.638087187	4.712634258	9.23154582	8.140902771	10.82550066	5.352949025	4.937624717	10.19756467	8.796558139	7.535051661	4.823881386	3.225854648
5.257247696	8.681336545	7.672158562	6.344722032	5.436495645	8.319615483	8.979528381	6.042450261	7.136494759	7.459042197	5.771621748	9.06425398	5.000230438	11.75122899	6.980793391	4.911079692	5.608728809	9.234792585	10.88152346	3.379982727	8.617697029	5.843096892	6.835076218	9.200733707	5.597312079	7.653694427	9.532784781	5.313510558	5.624934307	5.543158232	7.221858783	7.784550582	8.670534047	8.224312631	9.237043909	4.807040798	5.578867074	4.695957722	9.88809272	8.022211337	10.97283153	5.543072778	4.981282185	10.29737027	7.454142757	7.5600256	5.390922543	3.168626981
5.626379578	7.607598067	4.324460208	7.093258613	5.326443203	8.942251837	5.786574747	6.031872634	8.394598238	4.082157977	7.299913265	7.082583565	5.202005116	11.82172261	6.690676135	4.421873368	7.127670235	4.660900432	7.245671801	3.48432053	6.794028689	5.098794008	6.782185094	7.595661442	5.609452686	4.204914668	8.811447997	5.47179179	5.294424715	5.468885885	9.62140031	7.746745973	7.172756343	7.201990016	7.988930717	4.257724485	7.464805343	4.840073118	9.206003195	6.638070058	10.15401736	5.081988681	5.693982874	7.969255465	5.672863716	5.723940132	4.444233508	3.222088521
5.902485248	8.114368906	5.562935401	7.54582457	5.435989131	8.774870689	5.900745128	5.900423425	7.308274723	4.251313081	6.339516496	6.186402336	4.882366358	11.6939025	6.253349213	4.978257982	5.646805002	7.411227529	7.324478749	3.778775785	5.881972779	4.765674895	6.648668073	7.886019981	5.585422997	4.158488424	7.864887203	5.865508349	5.327851521	5.707262331	8.579294413	6.255531592	7.74503713	7.939843355	8.004400681	4.438434893	7.493470569	4.729456551	8.492837877	6.545876169	10.56238871	5.193949707	7.02005994	8.670556846	5.13160219	6.848228931	5.199337607	3.324081086
7.570853993	8.07238272	4.327715862	7.611535809	5.336350599	8.98551052	6.565658549	5.948604907	7.656726532	4.105694508	6.931652243	7.24070997	4.990996534	11.67672855	5.85782243	4.856887863	6.751492267	6.290840086	6.555332913	3.392210364	6.069167832	4.999366449	6.867651559	8.178638108	5.565354655	4.176874071	8.610284809	5.668587686	5.079696849	5.544877907	8.16492917	6.712546836	7.936807121	8.8024359	7.843728256	4.353694037	6.67429196	5.066912337	9.247781085	7.8922329	10.33312668	5.34920036	5.676627947	8.828184822	5.820247145	6.696963177	4.461189024	3.013510955
7.715780738	7.463103618	5.004966555	7.089254395	5.342902745	9.333189889	5.826047708	5.972065651	8.067127407	4.115279292	6.669062814	6.502290871	5.044877508	11.5936201	6.19441917	4.861692371	6.78868996	6.768660875	7.358399018	3.698957154	5.94582512	4.651174788	6.827773078	8.166534261	5.67391428	4.559991187	8.748792421	5.374938111	5.242002491	5.358044009	8.156307634	5.617909971	7.698819208	7.511108381	7.50710588	4.334103577	7.012107197	4.722009083	9.122674463	6.510065593	10.56137606	5.186235017	6.495580103	7.881364191	5.726990488	6.356548821	5.751166864	3.273914803
7.361614399	7.522086518	4.684016068	7.136027032	5.357907805	9.236617309	6.130550454	5.925857644	8.209682558	4.0997231	7.006133432	6.950508999	4.857913719	11.75830781	6.147396708	4.730478741	6.034131973	4.176010729	6.684852935	3.610797322	5.919727883	4.794279017	6.782090886	8.563826314	5.560654579	4.227628722	8.672093802	5.193623263	5.199559426	5.271761786	8.2025591	6.314331952	8.351023593	7.641035009	8.331255933	4.518913036	6.346520902	4.582819611	9.758786007	6.976402512	10.69988366	5.364759324	5.802336694	9.282737362	5.326147327	6.21933945	5.112073558	3.045241068
